4/sim/mysimdata.vcd
$date
	Fri Jun  3 15:10:38 2022
$end
$version
	Icarus Verilog
$end
$timescale
	1ps
$end
$scope module tb $end
$var wire 1 ! done $end
$var wire 64 " banq_outB [63:0] $end
$var wire 64 # banq_outA [63:0] $end
$var wire 64 $ alu_out [63:0] $end
$var reg 1 % clock $end
$var reg 1 & cnstA $end
$var reg 1 ' cnstB $end
$var reg 2 ( endwreg [1:0] $end
$var reg 1 ) enrregA $end
$var reg 1 * enrregB $end
$var reg 4 + i_aux [3:0] $end
$var reg 64 , in [63:0] $end
$var reg 64 - in_aux [63:0] $end
$var reg 5 . opr [4:0] $end
$var reg 64 / outA_aux [63:0] $end
$var reg 64 0 outB_aux [63:0] $end
$var reg 1 1 regwen $end
$var reg 1 2 reset $end
$var reg 4 3 seloutA [3:0] $end
$var reg 4 4 seloutB [3:0] $end
$var reg 4 5 selwreg [3:0] $end
$var reg 1 6 start $end
$var integer 32 7 i [31:0] $end
$scope module alu0 $end
$var wire 1 % clock $end
$var wire 64 8 inA [63:0] $end
$var wire 64 9 inB [63:0] $end
$var wire 5 : opr [4:0] $end
$var wire 1 2 reset $end
$var wire 1 6 start $end
$var wire 64 ; sum_out [63:0] $end
$var reg 1 ! done $end
$var reg 64 < outAB [63:0] $end
$var reg 64 = out_aux [63:0] $end
$scope module sum0 $end
$var wire 64 > sum_A [63:0] $end
$var wire 64 ? sum_B [63:0] $end
$var wire 64 @ sum_out [63:0] $end
$var wire 32 A re_out [31:0] $end
$var wire 32 B re_B [31:0] $end
$var wire 32 C re_A [31:0] $end
$var wire 32 D im_out [31:0] $end
$var wire 32 E im_B [31:0] $end
$var wire 32 F im_A [31:0] $end
$upscope $end
$upscope $end
$scope module reg_banq0 $end
$var wire 1 % clock $end
$var wire 1 & cnstA $end
$var wire 1 ' cnstB $end
$var wire 2 G endwreg [1:0] $end
$var wire 1 ) enrregA $end
$var wire 1 * enrregB $end
$var wire 64 H inA [63:0] $end
$var wire 1 1 regwen $end
$var wire 1 2 reset $end
$var wire 4 I seloutA [3:0] $end
$var wire 4 J seloutB [3:0] $end
$var wire 4 K selwreg [3:0] $end
$var reg 64 L outA [63:0] $end
$var reg 64 M outB [63:0] $end
$var integer 32 N i [31:0] $end
$upscope $end
$scope task execbr $end
$var reg 4 O i [3:0] $end
$var reg 64 P inA [63:0] $end
$upscope $end
$upscope $end
$enddefinitions $end
#0
$dumpvars
bx P
bx O
bx N
bx M
bx L
bx K
bx J
bx I
bx H
bx G
bx F
bx E
bx D
bx C
bx B
bx A
bx @
bx ?
bx >
bx =
bx <
bx ;
b0 :
bx 9
bx 8
b0 7
16
bx 5
bx 4
bx 3
02
01
bx 0
bx /
b0 .
b1 -
bx ,
bx +
0*
0)
bx (
0'
0&
0%
bx $
bx #
bx "
x!
$end
#5000
1!
1%
#10000
0%
b1 ,
b1 H
b0 O
b1 P
b0 +
b10 .
b10 :
1*
1)
b0 (
b0 G
#15000
11
b0 5
b0 K
1%
#20000
0%
#25000
1%
#30000
b0 4
b0 J
b0 3
b0 I
01
0%
#35000
b1 "
b1 M
b1 #
b1 L
1%
#40000
b0 A
b0 B
b0 C
b10 ;
b10 @
b10 D
b1 E
b1 F
0%
b1 7
b10001 -
b1 0
b1 9
b1 ?
b1 /
b1 8
b1 >
#45000
b10 =
1%
#50000
0%
b10001 ,
b10001 H
b1 O
b10001 P
b1 +
#55000
b10 $
b10 <
11
b1 5
b1 K
1%
#60000
0%
#65000
1%
#70000
b1 4
b1 J
b1 3
b1 I
01
0%
#75000
b10001 "
b10001 M
b10001 #
b10001 L
1%
#80000
b10001 E
b100010 ;
b100010 @
b100010 D
b10001 F
0%
b10 7
b100001 -
b10001 0
b10001 9
b10001 ?
b10001 /
b10001 8
b10001 >
#85000
b100010 =
1%
#90000
0%
b100001 ,
b100001 H
b10 O
b100001 P
b10 +
#95000
b100010 $
b100010 <
11
b10 5
b10 K
1%
#100000
0%
#105000
1%
#110000
b10 4
b10 J
b10 3
b10 I
01
0%
#115000
b100001 "
b100001 M
b100001 #
b100001 L
1%
#120000
b100001 E
b1000010 ;
b1000010 @
b1000010 D
b100001 F
0%
b11 7
b110001 -
b100001 0
b100001 9
b100001 ?
b100001 /
b100001 8
b100001 >
#125000
b1000010 =
1%
#130000
0%
b110001 ,
b110001 H
b11 O
b110001 P
b11 +
#135000
b1000010 $
b1000010 <
11
b11 5
b11 K
1%
#140000
0%
#145000
1%
#150000
b11 4
b11 J
b11 3
b11 I
01
0%
#155000
b110001 "
b110001 M
b110001 #
b110001 L
1%
#160000
b110001 E
b1100010 ;
b1100010 @
b1100010 D
b110001 F
0%
b100 7
b1000001 -
b110001 0
b110001 9
b110001 ?
b110001 /
b110001 8
b110001 >
#165000
b1100010 =
1%
#170000
0%
b1000001 ,
b1000001 H
b100 O
b1000001 P
b100 +
#175000
b1100010 $
b1100010 <
11
b100 5
b100 K
1%
#180000
0%
#185000
1%
#190000
b100 4
b100 J
b100 3
b100 I
01
0%
#195000
bx "
bx M
bx #
bx L
1%
#200000
bx B
bx A
bx C
bx E
bx ;
bx @
bx D
bx F
0%
b101 7
b1010001 -
bx 0
bx 9
bx ?
bx /
bx 8
bx >
#205000
bx =
1%
#210000
0%
b1010001 ,
b1010001 H
b101 O
b1010001 P
b101 +
#215000
bx $
bx <
11
b101 5
b101 K
1%
#220000
0%
#225000
1%
#230000
b101 4
b101 J
b101 3
b101 I
01
0%
#235000
1%
#240000
0%
b110 7
b1100001 -
#245000
1%
#250000
0%
b1100001 ,
b1100001 H
b110 O
b1100001 P
b110 +
#255000
11
b110 5
b110 K
1%
#260000
0%
#265000
1%
#270000
b110 4
b110 J
b110 3
b110 I
01
0%
#275000
1%
#280000
0%
b111 7
b1110001 -
#285000
1%
#290000
0%
b1110001 ,
b1110001 H
b111 O
b1110001 P
b111 +
#295000
11
b111 5
b111 K
1%
#300000
0%
#305000
1%
#310000
b111 4
b111 J
b111 3
b111 I
01
0%
#315000
1%
#320000
0%
b1000 7
b10000001 -
#325000
1%
#330000
0%
b10000001 ,
b10000001 H
b1000 O
b10000001 P
b1000 +
#335000
11
b1000 5
b1000 K
1%
#340000
0%
#345000
1%
#350000
b1000 4
b1000 J
b1000 3
b1000 I
01
0%
#355000
1%
#360000
0%
b1001 7
b10010001 -
#365000
1%
#370000
0%
b10010001 ,
b10010001 H
b1001 O
b10010001 P
b1001 +
#375000
11
b1001 5
b1001 K
1%
#380000
0%
#385000
1%
#390000
b1001 4
b1001 J
b1001 3
b1001 I
01
0%
#395000
1%
#400000
0%
b1010 7
b10100001 -
#405000
1%
#410000
0%
b10100001 ,
b10100001 H
b1010 O
b10100001 P
b1010 +
#415000
11
b1010 5
b1010 K
1%
#420000
0%
#425000
1%
#430000
b1010 4
b1010 J
b1010 3
b1010 I
01
0%
#435000
1%
#440000
0%
b1011 7
b10110001 -
#445000
1%
#450000
0%
b10110001 ,
b10110001 H
b1011 O
b10110001 P
b1011 +
#455000
11
b1011 5
b1011 K
1%
#460000
0%
#465000
1%
#470000
b1011 4
b1011 J
b1011 3
b1011 I
01
0%
#475000
1%
#480000
0%
b1100 7
b11000001 -
#485000
1%
#490000
0%
b11000001 ,
b11000001 H
b1100 O
b11000001 P
b1100 +
#495000
11
b1100 5
b1100 K
1%
#500000
0%
#505000
1%
#510000
b1100 4
b1100 J
b1100 3
b1100 I
01
0%
#515000
1%
#520000
0%
b1101 7
b11010001 -
#525000
1%
#530000
0%
b11010001 ,
b11010001 H
b1101 O
b11010001 P
b1101 +
#535000
11
b1101 5
b1101 K
1%
#540000
0%
#545000
1%
#550000
b1101 4
b1101 J
b1101 3
b1101 I
01
0%
#555000
1%
#560000
0%
b1110 7
b11100001 -
#565000
1%
#570000
0%
b11100001 ,
b11100001 H
b1110 O
b11100001 P
b1110 +
#575000
11
b1110 5
b1110 K
1%
#580000
0%
#585000
1%
#590000
b1110 4
b1110 J
b1110 3
b1110 I
01
0%
#595000
1%
#600000
0%
b1111 7
b11110001 -
#605000
1%
#610000
0%
b11110001 ,
b11110001 H
b1111 O
b11110001 P
b1111 +
#615000
11
b1111 5
b1111 K
1%
#620000
0%
#625000
1%
#630000
b1111 4
b1111 J
b1111 3
b1111 I
01
0%
#635000
1%
#640000
0%
b10000 7
b100000001 -
