3/sim/mysimdata.vcd
$date
	Thu Apr 28 16:26:05 2022
$end
$version
	Icarus Verilog
$end
$timescale
	100ps
$end
$scope module seq_tb $end
$var wire 16 ! sqrt [15:0] $end
$var reg 1 " clock $end
$var reg 1 # reset $end
$var reg 1 $ start $end
$var reg 1 % stop $end
$var reg 32 & x [31:0] $end
$var integer 32 ' flag [31:0] $end
$scope function golden_sqrt $end
$var reg 16 ( mask [15:0] $end
$var reg 16 ) temproot [15:0] $end
$var reg 32 * xin [31:0] $end
$var integer 32 + i [31:0] $end
$upscope $end
$scope module psdsqrt_1 $end
$var wire 1 " clock $end
$var wire 1 # reset $end
$var wire 1 $ start $end
$var wire 1 % stop $end
$var wire 16 , testsqrt [15:0] $end
$var wire 32 - xin [31:0] $end
$var wire 32 . sqtestsqrt [31:0] $end
$var reg 1 / comparator $end
$var reg 16 0 right_or [15:0] $end
$var reg 16 1 sqrt [15:0] $end
$var reg 16 2 tempsqrt [15:0] $end
$var reg 32 3 xin_out [31:0] $end
$upscope $end
$scope task execsqrt $end
$var reg 32 4 xin [31:0] $end
$upscope $end
$upscope $end
$enddefinitions $end
#0
$dumpvars
bx 4
bx 3
bx 2
bx 1
bx 0
x/
bx .
b0 -
bx ,
bx +
bx *
bx )
bx (
b0 '
b0 &
0%
0$
0#
0"
bx !
$end
#30
1#
#50
1/
b0 .
b0 ,
b0 3
b0 2
b0 0
b0 !
b0 1
1"
#100
0"
#150
1"
#200
0"
#230
0#
#250
1"
#300
0"
#350
1"
#400
0"
#450
1"
#500
0"
#550
1"
#600
0"
#650
1"
#700
0"
#750
1"
#800
0"
#850
1"
#900
0"
#950
1"
#1000
1$
0"
b1111101000 &
b1111101000 -
b1111101000 4
#1050
0/
b1000000000000000000000000000000 .
b1000000000000000 ,
b1111101000 3
b1000000000000000 0
1"
#1100
0$
0"
#1150
b10000000000000000000000000000 .
b100000000000000 ,
b100000000000000 0
1"
#1200
0"
#1250
b100000000000000000000000000 .
b10000000000000 ,
b10000000000000 0
1"
#1300
0"
#1350
b1000000000000000000000000 .
b1000000000000 ,
b1000000000000 0
1"
#1400
0"
#1450
b10000000000000000000000 .
b100000000000 ,
b100000000000 0
1"
#1500
0"
#1550
b100000000000000000000 .
b10000000000 ,
b10000000000 0
1"
#1600
0"
#1650
b1000000000000000000 .
b1000000000 ,
b1000000000 0
1"
#1700
0"
#1750
b10000000000000000 .
b100000000 ,
b100000000 0
1"
#1800
0"
#1850
b100000000000000 .
b10000000 ,
b10000000 0
1"
#1900
0"
#1950
b1000000000000 .
b1000000 ,
b1000000 0
1"
#2000
0"
#2050
b10000000000 .
b100000 ,
b100000 0
1"
#2100
0"
#2150
1/
b100000000 .
b10000 ,
b10000 0
1"
#2200
0"
#2250
b1001000000 .
b11000 ,
b10000 2
b1000 0
1"
#2300
0"
#2350
b1100010000 .
b11100 ,
b100 0
b11000 2
1"
#2400
0"
#2450
b1110000100 .
b11110 ,
b11100 2
b10 0
1"
#2500
0"
#2550
b1111000001 .
b11111 ,
b1 0
b11110 2
1"
#2600
0"
#2650
b11111 2
b0 0
1"
#2700
1%
0"
#2750
b11111 !
b11111 1
1"
#2800
0%
0"
#2850
1"
#2900
b0 &
b0 -
b0 4
b10000 +
b11111 )
b0 (
b1111101000 *
0"
#2950
1"
#3000
1$
0"
#3050
0/
b1000000000000000000000000000000 .
b1000000000000000 ,
b0 3
b0 2
b1000000000000000 0
1"
#3100
0$
0"
#3150
b10000000000000000000000000000 .
b100000000000000 ,
b100000000000000 0
1"
#3200
0"
#3250
b100000000000000000000000000 .
b10000000000000 ,
b10000000000000 0
1"
#3300
0"
#3350
b1000000000000000000000000 .
b1000000000000 ,
b1000000000000 0
1"
#3400
0"
#3450
b10000000000000000000000 .
b100000000000 ,
b100000000000 0
1"
#3500
0"
#3550
b100000000000000000000 .
b10000000000 ,
b10000000000 0
1"
#3600
0"
#3650
b1000000000000000000 .
b1000000000 ,
b1000000000 0
1"
#3700
0"
#3750
b10000000000000000 .
b100000000 ,
b100000000 0
1"
#3800
0"
#3850
b100000000000000 .
b10000000 ,
b10000000 0
1"
#3900
0"
#3950
b1000000000000 .
b1000000 ,
b1000000 0
1"
#4000
0"
#4050
b10000000000 .
b100000 ,
b100000 0
1"
#4100
0"
#4150
b100000000 .
b10000 ,
b10000 0
1"
#4200
0"
#4250
b1000000 .
b1000 ,
b1000 0
1"
#4300
0"
#4350
b10000 .
b100 ,
b100 0
1"
#4400
0"
#4450
b100 .
b10 ,
b10 0
1"
#4500
0"
#4550
b1 .
b1 ,
b1 0
1"
#4600
0"
#4650
1/
b0 .
b0 ,
b0 0
1"
#4700
1%
0"
#4750
b0 !
b0 1
1"
#4800
0%
0"
#4850
1"
#4900
b11111111111111111111111111111111 &
b11111111111111111111111111111111 -
b11111111111111111111111111111111 4
b10000 +
b0 )
b0 (
b0 *
0"
#4950
1"
#5000
1$
0"
#5050
b1000000000000000000000000000000 .
b1000000000000000 ,
b11111111111111111111111111111111 3
b1000000000000000 0
1"
#5100
0$
0"
#5150
b10010000000000000000000000000000 .
b1100000000000000 ,
b100000000000000 0
b1000000000000000 2
1"
#5200
0"
#5250
b11000100000000000000000000000000 .
b1110000000000000 ,
b1100000000000000 2
b10000000000000 0
1"
#5300
0"
#5350
b11100001000000000000000000000000 .
b1111000000000000 ,
b1000000000000 0
b1110000000000000 2
1"
#5400
0"
#5450
b11110000010000000000000000000000 .
b1111100000000000 ,
b1111000000000000 2
b100000000000 0
1"
#5500
0"
#5550
b11111000000100000000000000000000 .
b1111110000000000 ,
b10000000000 0
b1111100000000000 2
1"
#5600
0"
#5650
b11111100000001000000000000000000 .
b1111111000000000 ,
b1111110000000000 2
b1000000000 0
1"
#5700
0"
#5750
b11111110000000010000000000000000 .
b1111111100000000 ,
b100000000 0
b1111111000000000 2
1"
#5800
0"
#5850
b11111111000000000100000000000000 .
b1111111110000000 ,
b1111111100000000 2
b10000000 0
1"
#5900
0"
#5950
b11111111100000000001000000000000 .
b1111111111000000 ,
b1000000 0
b1111111110000000 2
1"
#6000
0"
#6050
b11111111110000000000010000000000 .
b1111111111100000 ,
b1111111111000000 2
b100000 0
1"
#6100
0"
#6150
b11111111111000000000000100000000 .
b1111111111110000 ,
b10000 0
b1111111111100000 2
1"
#6200
0"
#6250
b11111111111100000000000001000000 .
b1111111111111000 ,
b1111111111110000 2
b1000 0
1"
#6300
0"
#6350
b11111111111110000000000000010000 .
b1111111111111100 ,
b100 0
b1111111111111000 2
1"
#6400
0"
#6450
b11111111111111000000000000000100 .
b1111111111111110 ,
b1111111111111100 2
b10 0
1"
#6500
0"
#6550
b11111111111111100000000000000001 .
b1111111111111111 ,
b1 0
b1111111111111110 2
1"
#6600
0"
#6650
b1111111111111111 2
b0 0
1"
#6700
1%
0"
#6750
b1111111111111111 !
b1111111111111111 1
1"
#6800
0%
0"
#6850
1"
#6900
b1001 &
b1001 -
b1001 4
b1111111111111111 )
b10000 +
b0 (
b11111111111111111111111111111111 *
0"
#6950
1"
#7000
1$
0"
#7050
0/
b1000000000000000000000000000000 .
b1000000000000000 ,
b1001 3
b0 2
b1000000000000000 0
1"
#7100
0$
0"
#7150
b10000000000000000000000000000 .
b100000000000000 ,
b100000000000000 0
1"
#7200
0"
#7250
b100000000000000000000000000 .
b10000000000000 ,
b10000000000000 0
1"
#7300
0"
#7350
b1000000000000000000000000 .
b1000000000000 ,
b1000000000000 0
1"
#7400
0"
#7450
b10000000000000000000000 .
b100000000000 ,
b100000000000 0
1"
#7500
0"
#7550
b100000000000000000000 .
b10000000000 ,
b10000000000 0
1"
#7600
0"
#7650
b1000000000000000000 .
b1000000000 ,
b1000000000 0
1"
#7700
0"
#7750
b10000000000000000 .
b100000000 ,
b100000000 0
1"
#7800
0"
#7850
b100000000000000 .
b10000000 ,
b10000000 0
1"
#7900
0"
#7950
b1000000000000 .
b1000000 ,
b1000000 0
1"
#8000
0"
#8050
b10000000000 .
b100000 ,
b100000 0
1"
#8100
0"
#8150
b100000000 .
b10000 ,
b10000 0
1"
#8200
0"
#8250
b1000000 .
b1000 ,
b1000 0
1"
#8300
0"
#8350
b10000 .
b100 ,
b100 0
1"
#8400
0"
#8450
1/
b100 .
b10 ,
b10 0
1"
#8500
0"
#8550
b1001 .
b11 ,
b1 0
b10 2
1"
#8600
0"
#8650
b11 2
b0 0
1"
#8700
1%
0"
#8750
b11 !
b11 1
1"
#8800
0%
0"
#8850
1"
#8900
b10010000 &
b10010000 -
b10010000 4
b10000 +
b11 )
b0 (
b1001 *
0"
#8950
1"
#9000
1$
0"
#9050
0/
b1000000000000000000000000000000 .
b1000000000000000 ,
b10010000 3
b0 2
b1000000000000000 0
1"
#9100
0$
0"
#9150
b10000000000000000000000000000 .
b100000000000000 ,
b100000000000000 0
1"
#9200
0"
#9250
b100000000000000000000000000 .
b10000000000000 ,
b10000000000000 0
1"
#9300
0"
#9350
b1000000000000000000000000 .
b1000000000000 ,
b1000000000000 0
1"
#9400
0"
#9450
b10000000000000000000000 .
b100000000000 ,
b100000000000 0
1"
#9500
0"
#9550
b100000000000000000000 .
b10000000000 ,
b10000000000 0
1"
#9600
0"
#9650
b1000000000000000000 .
b1000000000 ,
b1000000000 0
1"
#9700
0"
#9750
b10000000000000000 .
b100000000 ,
b100000000 0
1"
#9800
0"
#9850
b100000000000000 .
b10000000 ,
b10000000 0
1"
#9900
0"
#9950
b1000000000000 .
b1000000 ,
b1000000 0
1"
#10000
0"
#10050
b10000000000 .
b100000 ,
b100000 0
1"
#10100
0"
#10150
b100000000 .
b10000 ,
b10000 0
1"
#10200
0"
#10250
1/
b1000000 .
b1000 ,
b1000 0
1"
#10300
0"
#10350
b10010000 .
b1100 ,
b100 0
b1000 2
1"
#10400
0"
#10450
0/
b11000100 .
b1110 ,
b1100 2
b10 0
1"
#10500
0"
#10550
b10101001 .
b1101 ,
b1 0
1"
#10600
0"
#10650
1/
b10010000 .
b1100 ,
b0 0
1"
#10700
1%
0"
#10750
b1100 !
b1100 1
1"
#10800
0%
0"
#10850
1"
#10900
b11111111111111111111111111111111 &
b11111111111111111111111111111111 -
b11111111111111111111111111111111 4
b10000 +
b1100 )
b0 (
b10010000 *
0"
#10950
1"
#11000
1$
0"
#11050
b1000000000000000000000000000000 .
b1000000000000000 ,
b11111111111111111111111111111111 3
b0 2
b1000000000000000 0
1"
#11100
0$
0"
#11150
b10010000000000000000000000000000 .
b1100000000000000 ,
b100000000000000 0
b1000000000000000 2
1"
#11200
0"
#11250
b11000100000000000000000000000000 .
b1110000000000000 ,
b1100000000000000 2
b10000000000000 0
1"
#11300
0"
#11350
b11100001000000000000000000000000 .
b1111000000000000 ,
b1000000000000 0
b1110000000000000 2
1"
#11400
0"
#11450
b11110000010000000000000000000000 .
b1111100000000000 ,
b1111000000000000 2
b100000000000 0
1"
#11500
0"
#11550
b11111000000100000000000000000000 .
b1111110000000000 ,
b10000000000 0
b1111100000000000 2
1"
#11600
0"
#11650
b11111100000001000000000000000000 .
b1111111000000000 ,
b1111110000000000 2
b1000000000 0
1"
#11700
0"
#11750
b11111110000000010000000000000000 .
b1111111100000000 ,
b100000000 0
b1111111000000000 2
1"
#11800
0"
#11850
b11111111000000000100000000000000 .
b1111111110000000 ,
b1111111100000000 2
b10000000 0
1"
#11900
0"
#11950
b11111111100000000001000000000000 .
b1111111111000000 ,
b1000000 0
b1111111110000000 2
1"
#12000
0"
#12050
b11111111110000000000010000000000 .
b1111111111100000 ,
b1111111111000000 2
b100000 0
1"
#12100
0"
#12150
b11111111111000000000000100000000 .
b1111111111110000 ,
b10000 0
b1111111111100000 2
1"
#12200
0"
#12250
b11111111111100000000000001000000 .
b1111111111111000 ,
b1111111111110000 2
b1000 0
1"
#12300
0"
#12350
b11111111111110000000000000010000 .
b1111111111111100 ,
b100 0
b1111111111111000 2
1"
#12400
0"
#12450
b11111111111111000000000000000100 .
b1111111111111110 ,
b1111111111111100 2
b10 0
1"
#12500
0"
#12550
b11111111111111100000000000000001 .
b1111111111111111 ,
b1 0
b1111111111111110 2
1"
#12600
0"
#12650
b1111111111111111 2
b0 0
1"
#12700
1%
0"
#12750
b1111111111111111 !
b1111111111111111 1
1"
#12800
0%
0"
#12850
1"
#12900
b10000 +
b1111111111111111 )
b0 (
b11111111111111111111111111111111 *
0"
